<svg width="260" height="260" viewBox="0 0 260 260" fill="none" xmlns="http://www.w3.org/2000/svg">
<path fill-rule="evenodd" clip-rule="evenodd" d="M127.913 0.0267629C122.849 0.498653 118.252 2.27434 114.238 5.3082C109.285 9.05183 105.724 14.6744 104.521 20.6529C103.988 23.3016 104.018 20.2016 104.019 71.3542C104.02 121.465 104.003 119.418 104.45 121.864C105.175 125.834 106.927 129.701 109.524 133.06C110.526 134.355 112.986 136.768 114.287 137.731C118.002 140.481 121.805 142.065 126.333 142.748C129.836 143.276 133.294 143.04 136.997 142.019C138.78 141.527 139.783 141.141 141.525 140.276C148.666 136.731 153.86 130.033 155.412 122.364C155.983 119.547 155.955 121.336 155.955 87.5268C155.955 70.4329 155.975 56.447 155.999 56.447C156.122 56.447 158.1 57.2068 159.855 57.9282C169.273 61.7994 178.178 67.804 185.464 75.1967C190.628 80.4366 194.799 86.0333 198.387 92.5374C203.31 101.462 206.552 111.869 207.538 121.913C208.66 133.344 207.574 143.753 204.18 154.115C200.043 166.745 193.133 177.63 183.404 186.842C175.395 194.426 165.18 200.538 154.77 203.975C151.364 205.099 149.823 205.527 146.821 206.181C141.336 207.376 137.061 207.874 131.369 207.982C124.655 208.11 119.238 207.555 112.39 206.036C103.44 204.051 94.1129 199.992 86.3441 194.701C81.9198 191.687 78.7005 189.018 74.8355 185.159C67.2284 177.565 61.6593 169.16 57.5616 159.09C54.7245 152.118 52.8994 144.349 52.2146 136.33C51.9649 133.406 51.9639 126.204 52.2128 123.444C52.792 117.021 53.8946 111.616 55.8372 105.677C56.5709 103.433 58.0312 99.6241 58.7731 98.0176C61.3137 92.5168 64.0649 87.8742 67.5209 83.2556C68.1711 82.3867 68.8695 81.4758 69.0729 81.2314C70.8083 79.1465 72.2876 77.4696 73.6393 76.055C77.308 72.2155 78.8089 70.0955 80.3434 66.5854C83.0808 60.3234 83.0748 52.5626 80.3276 46.2272C77.6906 40.1457 73.0388 35.396 67.1236 32.7453C64.8283 31.7167 62.4062 31.0129 59.9316 30.6555C58.7443 30.484 54.1115 30.4837 52.9211 30.655C51.5403 30.8538 49.1765 31.4131 48.0336 31.8116C43.8459 33.2715 40.7537 35.2796 37.3698 38.7369C33.9684 42.212 32.0436 44.3647 28.9508 48.1527C20.834 58.0938 14.1075 69.531 9.23492 81.6757C8.64654 83.1421 8.00809 84.7861 7.81595 85.3292C6.56523 88.8653 6.19861 89.972 5.44435 92.488C2.51458 102.261 0.876118 111.495 0.126694 122.456C-0.0425438 124.932 -0.0421484 134.498 0.127385 137.169C0.26552 139.347 0.48778 142.089 0.643392 143.538C1.10766 147.86 2.03402 153.799 2.72243 156.868C5.10805 167.504 7.54185 174.893 11.6986 184.121C13.2255 187.511 16.6242 193.979 18.314 196.711C18.5156 197.037 19.0492 197.903 19.4998 198.636C20.4715 200.217 23.3587 204.517 24.572 206.19C26.3668 208.665 28.0295 210.778 31.0506 214.424C34.5862 218.69 41.3403 225.412 46.0631 229.365C57.1563 238.65 68.6727 245.565 81.8021 250.824C93.6563 255.572 106.42 258.566 119.224 259.601C123.194 259.923 125.33 260.002 129.986 260C138.005 259.997 143.05 259.586 151.64 258.233C154.413 257.797 160.099 256.585 163.064 255.799C164.583 255.396 169.142 254.039 170.617 253.551C180.154 250.395 189.284 246.176 197.573 241.094C207.83 234.807 216.836 227.468 225.022 218.723C228.45 215.062 232.602 210.046 235.098 206.551C239.822 199.935 242.863 194.942 246.203 188.318C249.62 181.542 252.591 174.088 254.547 167.384C254.8 166.515 255.11 165.471 255.235 165.064C255.774 163.313 257.224 157.116 257.741 154.35C259.482 145.039 260.235 135.59 259.936 126.801C259.689 119.529 259.232 114.855 258.09 107.892C257.054 101.581 255.14 94.0958 252.907 87.6306C247.648 72.3986 239.62 58.2964 229.219 46.0153C221.007 36.32 211.317 27.7802 200.691 20.8757C195.058 17.215 188.835 13.8429 182.638 11.0934C177.914 8.99752 171.725 6.70946 167.359 5.44486C166.49 5.19327 165.513 4.90504 165.187 4.80452C161.887 3.78628 155.333 2.34958 150.82 1.65493C145.261 0.799324 142.673 0.513267 137.749 0.210128C135.43 0.067346 128.803 -0.0561808 127.913 0.0267629Z" fill="#1E8CBE"/>
</svg>
