<svg width="232" height="59" viewBox="0 0 232 59" fill="none" xmlns="http://www.w3.org/2000/svg">
<path d="M179.61 15H167.03C166.29 15 165.55 15.7368 165.18 16.4737L160 48.8947C160 49.6316 160.37 50 161.11 50H167.77C168.51 50 168.88 49.6316 168.88 48.8947L170.36 39.6842C170.36 38.9474 171.1 38.2105 172.21 38.2105H176.28C184.79 38.2105 189.6 34.1579 190.71 26.0526C191.45 22.7368 190.71 19.7895 189.23 17.9474C187.01 16.1053 183.68 15 179.61 15ZM181.09 27.1579C180.35 31.5789 177.02 31.579 173.69 31.579H171.47L172.95 23.1053C172.95 22.7368 173.32 22.3684 174.06 22.3684H174.8C177.02 22.3684 179.24 22.3684 180.35 23.8421C181.09 24.2105 181.09 25.3158 181.09 27.1579Z" fill="#139AD6"/>
<path d="M89.1175 15.4666H76.5968C75.8603 15.4666 75.1238 16.2031 74.7556 16.9396L69.6 49.3459C69.6 50.0824 69.9683 50.4507 70.7048 50.4507H76.5968C77.3333 50.4507 78.0698 49.7142 78.4381 48.9777L79.9111 40.1396C79.9111 39.4031 80.6476 38.6666 81.7524 38.6666H85.8032C94.273 38.6666 99.0603 34.6158 100.165 26.5142C100.902 23.1999 100.165 20.2539 98.6921 18.4126C96.4825 16.5713 93.5365 15.4666 89.1175 15.4666ZM90.5905 27.6189C89.854 32.038 86.5397 32.038 83.2254 32.038H81.3841L82.8571 23.5681C82.8571 23.1999 83.2254 22.8316 83.9619 22.8316H84.6984C86.9079 22.8316 89.1175 22.8316 90.2222 24.3046C90.5905 24.6729 90.9587 25.7777 90.5905 27.6189Z" fill="#263B80"/>
<path d="M127.048 27.2507H121.156C120.787 27.2507 120.051 27.6189 120.051 27.9872L119.683 29.8284L119.314 29.0919C117.841 27.2507 115.263 26.5142 112.317 26.5142C105.689 26.5142 99.7968 31.6697 98.6921 38.6665C97.9556 42.3491 99.0603 45.6634 100.902 47.8729C102.743 50.0824 105.321 50.8189 108.635 50.8189C114.159 50.8189 117.105 47.5046 117.105 47.5046L116.737 49.3459C116.737 50.0824 117.105 50.4507 117.841 50.4507H123.365C124.102 50.4507 124.838 49.7142 125.206 48.9777L128.521 28.3554C128.152 27.9872 127.416 27.2507 127.048 27.2507ZM118.578 39.0348C117.841 42.3491 115.263 44.9269 111.581 44.9269C109.74 44.9269 108.267 44.1904 107.53 43.4538C106.794 42.3491 106.425 40.8761 106.425 39.0348C106.794 35.7205 109.74 33.1427 113.054 33.1427C114.895 33.1427 116 33.8792 117.105 34.6157C118.21 35.7205 118.578 37.5618 118.578 39.0348Z" fill="#263B80"/>
<path d="M216.53 27.7273H210.649C210.282 27.7273 209.547 28.0909 209.547 28.4545L209.179 30.2727L208.812 29.5455C207.342 27.7273 204.769 27 201.829 27C195.213 27 189.333 32.0909 188.23 39C187.495 42.6364 188.598 45.9091 190.435 48.0909C192.273 50.2727 194.846 51 198.153 51C203.666 51 206.607 47.7273 206.607 47.7273L206.239 49.5454C206.239 50.2727 206.607 50.6364 207.342 50.6364H212.855C213.59 50.6364 214.325 49.9091 214.692 49.1818L218 28.8182C217.632 28.4545 217.265 27.7273 216.53 27.7273ZM208.077 39.3636C207.342 42.6364 204.769 45.1818 201.094 45.1818C199.256 45.1818 197.786 44.4545 197.051 43.7273C196.316 42.6364 195.948 41.1818 195.948 39.3636C196.316 36.0909 199.256 33.5455 202.564 33.5455C204.401 33.5455 205.504 34.2727 206.607 35C208.077 36.0909 208.444 37.9091 208.077 39.3636Z" fill="#139AD6"/>
<path d="M159.078 27H152.879C152.149 27 151.785 27.3678 151.42 27.7356L143.398 40.2414L139.751 28.4713C139.387 27.7356 139.022 27.3678 137.928 27.3678H132.094C131.365 27.3678 131 28.1034 131 28.8391L137.564 48.3333L131.365 57.1609C131 57.8966 131.365 59 132.094 59H137.928C138.658 59 139.022 58.6322 139.387 58.2644L159.442 29.2069C160.536 28.1034 159.807 27 159.078 27Z" fill="#263B80"/>
<path d="M224.056 16.8778L219 49.8993C219 50.6331 219.361 51 220.083 51H225.139C225.861 51 226.583 50.2662 226.944 49.5324L232 17.2447C232 16.5108 231.639 16.1439 230.917 16.1439H225.139C224.778 15.777 224.417 16.1439 224.056 16.8778Z" fill="#139AD6"/>
<path d="M41.9907 4.39436C39.4348 1.46478 34.688 0 28.1155 0H9.8587C8.76329 0 7.66788 1.09859 7.30274 2.19718L0 50.169C0 51.2676 0.730274 52 1.46055 52H12.7798L15.7009 34.0563V34.7887C16.066 33.6901 17.1614 32.5915 18.2568 32.5915H23.7339C34.3229 32.5915 42.3559 28.1972 44.9118 16.1127C44.9118 15.7465 44.9118 15.3803 44.9118 15.0141C44.5467 15.0141 44.5467 15.0141 44.9118 15.0141C45.277 10.2535 44.5467 7.32394 41.9907 4.39436Z" fill="#263B80"/>
<path d="M44.6675 15C44.6675 15.3697 44.6675 15.7395 44.6675 16.1092C42.1267 28.6807 34.1413 32.7479 23.6151 32.7479H18.1705C17.0816 32.7479 15.9927 33.8571 15.6297 34.9664L12 57.521C12 58.2605 12.363 59 13.4519 59H22.8892C23.9781 59 25.067 58.2605 25.067 57.1513V56.7815L26.8819 45.3193V44.5798C26.8819 43.4706 27.9708 42.7311 29.0597 42.7311H30.5116C39.5859 42.7311 46.8454 39.0336 48.6602 27.9412C49.3862 23.5042 49.0232 19.437 46.8454 16.8487C46.4824 16.1092 45.7564 15.3697 44.6675 15Z" fill="#139AD6"/>
<path d="M42.6667 14.1C42.2963 14.1 41.9259 13.7333 41.5556 13.7333C41.1852 13.7333 40.8148 13.7333 40.4444 13.3667C38.963 13 37.4815 13 35.6296 13H21.1852C20.8148 13 20.4444 13 20.0741 13.3667C19.3333 13.7333 18.963 14.4667 18.963 15.2L16 34.2667V35C16.3704 33.9 17.4815 32.8 18.5926 32.8H24.1481C34.8889 32.8 43.037 28.4 45.6296 16.3C45.6296 15.9333 45.6296 15.5667 46 15.2C45.2593 14.8333 44.8889 14.4667 44.1481 14.4667C43.037 14.1 43.037 14.1 42.6667 14.1Z" fill="#232C65"/>
</svg>
